************************************************************************
* auCdl Netlist:
* 
* Library Name:  UNSEEN_UWB_1V2
* Top Cell Name: division_core
* View Name:     schematic
* Netlisted on:  Mar 18 08:27:00 2021
************************************************************************

.INCLUDE  /opt/pdk/umc13mmrf/CDL_include_file.cir
*.EQUATION
*.SCALE METER
*.MEGA
.PARAM



************************************************************************
* Library Name: UNSEEN_UWB_1V2
* Cell Name:    divideby2
* View Name:    schematic
************************************************************************

.SUBCKT divideby2 in out rst_n vdd vss
*.PININFO in:I out:I rst_n:I vdd:I vss:I
MNM77 out in net31 vss N_12_HSL130E W=320e-9 L=120.0n M=1.0
MNM74 net18 net13 net26 vss N_12_HSL130E W=320e-9 L=120.0n M=1.0
MNM72 net13 out vss vss N_12_HSL130E W=160.0n L=120.0n M=1.0
MNM75 net26 in vss vss N_12_HSL130E W=320e-9 L=120.0n M=1.0
MNM76 net31 net18 net26 vss N_12_HSL130E W=320e-9 L=120.0n M=1.0
MPM83 net32 out vdd vdd P_12_HSL130E W=1.44e-6 L=120.0n M=1.0
MPM84 out net18 vdd vdd P_12_HSL130E W=720.0n L=120.0n M=1.0
MPM79 net13 in net32 vdd P_12_HSL130E W=1.44e-6 L=120.0n M=1.0
MPM82 net18 in vdd vdd P_12_HSL130E W=720.0n L=120.0n M=1.0
MPM2 out rst_n vdd vdd P_12_HSL130E W=160.0n L=120.0n M=1.0
.ENDS

************************************************************************
* Library Name: UNSEEN_UWB_1V2
* Cell Name:    buffer_jrf
* View Name:    schematic
************************************************************************

.SUBCKT buffer_jrf GND Input Output supplyVDD
*.PININFO Input:I Output:O GND:B supplyVDD:B
MNM16 Output net22 GND GND N_12_HSL130E W=1.44e-6 L=120.0n M=9.0
MNM1 sec prim GND GND N_12_HSL130E W=480.0n L=120.0n M=1.0
MNM0 prim Input GND GND N_12_HSL130E W=320e-9 L=120.0n M=1.0
MNM12 tri sec GND GND N_12_HSL130E W=1.44u L=120.0n M=1.0
MNM13 net22 tri GND GND N_12_HSL130E W=1.152e-6 L=120.0n M=3.0
MPM0 sec prim supplyVDD supplyVDD P_12_HSL130E W=1.44u L=120.0n M=1.0
MPM3 prim Input supplyVDD supplyVDD P_12_HSL130E W=960e-9 L=120.0n M=1.0
MPM1 tri sec supplyVDD supplyVDD P_12_HSL130E W=3.456e-6 L=120.0n M=1.0
MPM6 Output net22 supplyVDD supplyVDD P_12_HSL130E W=4.32e-6 L=120.0n M=9.0
MPM2 net22 tri supplyVDD supplyVDD P_12_HSL130E W=4.32u L=120.0n M=3.0
.ENDS

************************************************************************
* Library Name: UNSEEN_UWB_1V2
* Cell Name:    INV2
* View Name:    schematic
************************************************************************

.SUBCKT INV2 in out vdd vss
*.PININFO in:B out:B vdd:B vss:B
MPM1 out in vdd vdd P_12_HSL130E W=2.16e-6 L=240.0n M=1.0
MNM0 out in vss vss N_12_HSL130E W=480e-9 L=240.0n M=1.0
.ENDS

************************************************************************
* Library Name: UNSEEN_UWB_1V2
* Cell Name:    tg
* View Name:    schematic
************************************************************************

.SUBCKT tg en ep in out vdd vss
*.PININFO en:I ep:I in:B out:B vdd:B vss:B
MM0 in en out vss N_12_HSL130E W=500n L=120.0n M=1.0
MM1 in ep out vdd P_12_HSL130E W=1.5u L=120.0n M=1.0
.ENDS

************************************************************************
* Library Name: UNSEEN_UWB_1V2
* Cell Name:    division_core
* View Name:    schematic
************************************************************************

.SUBCKT division_core GND div div1 final input output rst_n supplyVDD
*.PININFO div:I div1:I input:I rst_n:I output:O GND:B final:B supplyVDD:B
XI13 out8 net013 rst_n supplyVDD GND / divideby2
XI7 shifted_signal net18 rst_n supplyVDD GND / divideby2
XI8 out2 net17 rst_n supplyVDD GND / divideby2
XI9 out4 net16 rst_n supplyVDD GND / divideby2
XI68 GND shifted_signal final supplyVDD / buffer_jrf
MC0 GND supplyVDD GND GND N_12_HSL130E W=4u L=2.1u M=5.0
XI19 div1 div1_ supplyVDD GND / INV2
XI12 net013 out16 supplyVDD GND / INV2
XI94 div div_ supplyVDD GND / INV2
XI4 input shifted_signal supplyVDD GND / INV2
XI3 net18 out2 supplyVDD GND / INV2
XI18 net16 out8 supplyVDD GND / INV2
XI2 net17 out4 supplyVDD GND / INV2
XI21 div1_ div1 output net011 supplyVDD GND / tg
XI16 div1 div1_ net010 output supplyVDD GND / tg
XI20 div_ div net011 out2 supplyVDD GND / tg
XI14 div div_ out16 net010 supplyVDD GND / tg
XI92 div div_ out4 net011 supplyVDD GND / tg
XI1 div_ div net010 out8 supplyVDD GND / tg
.ENDS

