Values ,histogram2D(_statGetWaveform( "Transient - DT_Monte Carlo" nil ?resDbFile axlGetHistoryResults(axlGetCurrentHistory(_vivaGetSessionName())) ?testName "RO:RO_tb:1" ?filtPointsList "" ) 10 "standard" "stddev" t)
49.13,1
49.32,1
49.32,2
49.34,24
49.36,12
49.38,14
49.38,2
49.38,10
49.38,20
49.38,18
49.39,1
49.39,16
49.39,3
49.40,4
49.40,15
49.40,23
49.40,17
49.40,21
49.41,7
49.41,11
49.42,8
49.42,6
49.42,9
49.42,19
49.43,5
49.43,13
49.43,22
49.43,117
49.43,30
49.44,37
49.44,62
49.44,3
49.44,67
49.44,24
49.44,100
49.44,77
49.44,83
49.44,82
49.44,84
49.44,45
49.45,6
49.45,87
49.45,39
49.45,72
49.45,9
49.45,41
49.45,13
49.46,99
49.46,33
49.46,28
49.46,29
49.46,93
49.46,4
49.46,61
49.46,60
49.46,129
49.46,118
49.46,110
49.46,17
49.46,65
49.46,53
49.46,74
49.47,36
49.47,96
49.47,68
49.47,73
49.47,107
49.47,21
49.47,79
49.47,86
49.47,130
49.47,88
49.48,106
49.48,120
49.48,95
49.48,75
49.48,27
49.48,18
49.48,16
49.48,40
49.48,64
49.48,48
49.48,111
49.48,22
49.48,103
49.48,49
49.49,56
49.49,23
49.49,92
49.49,124
49.49,2
49.49,89
49.49,42
49.49,109
49.49,31
49.49,80
49.49,119
49.49,102
49.49,51
49.50,12
49.50,34
49.50,128
49.50,59
49.50,121
49.50,43
49.50,11
49.50,7
49.50,78
49.50,14
49.50,85
49.51,115
49.51,38
49.51,105
49.51,76
49.51,98
49.51,35
49.51,25
49.51,66
49.51,5
49.51,69
49.51,15
49.51,104
49.51,108
49.51,71
49.51,101
49.51,114
49.51,50
49.51,46
49.52,20
49.52,1
49.52,19
49.52,113
49.52,54
49.52,123
49.52,91
49.52,112
49.52,81
49.52,90
49.52,32
49.52,10
49.52,55
49.52,58
49.52,8
49.52,70
49.52,47
49.52,94
49.52,125
49.52,122
49.52,26
49.52,97
49.52,52
49.52,57
49.53,127
49.53,63
49.53,44
49.53,126
49.53,116
49.53,131
49.53,194
49.53,241
49.53,108
49.54,216
49.54,180
49.54,125
49.54,228
49.54,189
49.54,61
49.54,36
49.54,117
49.54,135
49.54,93
49.54,13
49.54,220
49.54,207
49.54,9
49.54,2
49.54,203
49.54,84
49.54,127
49.54,146
49.54,212
49.54,247
49.54,201
49.54,106
49.55,159
49.55,95
49.55,53
49.55,217
49.55,204
49.55,64
49.55,183
49.55,213
49.55,152
49.55,210
49.55,224
49.55,218
49.55,226
49.55,43
49.55,158
49.55,142
49.55,7
49.55,109
49.55,103
49.55,12
49.55,173
49.55,178
49.55,227
49.55,219
49.56,67
49.56,182
49.56,221
49.56,70
49.56,143
49.56,82
49.56,115
49.56,139
49.56,80
49.56,195
49.56,119
49.56,161
49.56,236
49.56,175
49.56,59
49.56,211
49.56,57
49.56,156
49.57,96
49.57,140
49.57,235
49.57,24
49.57,128
49.57,48
49.57,132
49.57,208
49.57,243
49.57,157
49.57,151
49.57,26
49.57,144
49.57,73
49.57,25
49.57,104
49.57,245
49.57,187
49.57,184
49.57,29
49.57,16
49.58,181
49.58,185
49.58,40
49.58,149
49.58,172
49.58,72
49.58,205
49.58,239
49.58,133
49.58,83
49.58,56
49.58,124
49.58,5
49.58,113
49.58,54
49.58,1
49.58,196
49.58,130
49.58,192
49.58,55
49.58,79
49.58,23
49.58,89
49.58,6
49.58,154
49.58,102
49.59,229
49.59,174
49.59,121
49.59,39
49.59,238
49.59,45
49.59,76
49.59,176
49.59,52
49.59,231
49.59,19
49.59,190
49.59,98
49.59,206
49.59,62
49.59,116
49.59,171
49.59,232
49.59,14
49.59,18
49.59,129
49.59,69
49.59,112
49.59,81
49.59,118
49.59,4
49.60,63
49.60,105
49.60,134
49.60,77
49.60,10
49.60,110
49.60,126
49.60,60
49.60,141
49.60,111
49.60,164
49.60,8
49.60,177
49.60,169
49.60,150
49.60,186
49.60,22
49.60,209
49.60,162
49.60,41
49.61,37
49.61,114
49.61,66
49.61,120
49.61,99
49.61,94
49.61,200
49.61,71
49.61,198
49.61,153
49.61,222
49.61,58
49.61,30
49.61,47
49.61,193
49.61,165
49.61,225
49.61,92
49.61,107
49.61,46
49.61,230
49.61,27
49.61,20
49.61,68
49.61,147
49.61,11
49.61,44
49.61,34
49.61,31
49.61,90
49.61,15
49.61,65
49.61,86
49.61,179
49.61,214
49.61,170
49.61,242
49.61,101
49.61,166
49.62,123
49.62,51
49.62,240
49.62,202
49.62,21
49.62,100
49.62,122
49.62,49
49.62,42
49.62,188
49.62,215
49.62,33
49.62,50
49.62,97
49.62,155
49.62,137
49.62,246
49.62,233
49.62,35
49.62,167
49.62,87
49.62,136
49.62,38
49.62,148
49.62,223
49.62,91
49.62,138
49.62,78
49.62,32
49.63,3
49.63,191
49.63,88
49.63,163
49.63,197
49.63,74
49.63,244
49.63,168
49.63,234
49.63,199
49.63,160
49.63,237
49.63,17
49.63,85
49.63,145
49.63,28
49.63,75
49.63,131
49.63,6
49.63,251
49.63,17
49.63,71
49.63,22
49.63,252
49.63,157
49.63,207
49.63,91
49.63,166
49.63,58
49.63,124
49.63,94
49.63,148
49.64,204
49.64,99
49.64,104
49.64,253
49.64,208
49.64,53
49.64,97
49.64,16
49.64,128
49.64,56
49.64,171
49.64,149
49.64,255
49.64,248
49.64,263
49.64,42
49.64,43
49.64,146
49.64,223
49.64,261
49.64,65
49.64,62
49.64,156
49.64,89
49.64,199
49.64,232
49.64,48
49.65,102
49.65,151
49.65,39
49.65,203
49.65,264
49.65,172
49.65,213
49.65,23
49.65,21
49.65,108
49.65,5
49.65,123
49.65,19
49.65,37
49.65,180
49.65,250
49.65,179
49.65,26
49.65,158
49.65,78
49.65,86
49.65,183
49.65,101
49.65,276
49.65,145
49.65,127
49.65,103
49.65,285
49.65,107
49.65,277
49.65,267
49.65,28
49.65,139
49.65,34
49.65,64
49.66,138
49.66,175
49.66,221
49.66,229
49.66,258
49.66,280
49.66,20
49.66,193
49.66,284
49.66,120
49.66,110
49.66,69
49.66,167
49.66,174
49.66,134
49.66,225
49.66,169
49.66,238
49.66,249
49.66,88
49.66,74
49.66,209
49.66,113
49.66,29
49.66,206
49.66,247
49.66,59
49.66,155
49.66,231
49.66,244
49.66,105
49.66,109
49.66,159
49.66,132
49.66,68
49.66,111
49.66,85
49.66,63
49.66,33
49.66,41
49.66,52
49.66,81
49.66,214
49.66,173
49.67,30
49.67,278
49.67,126
49.67,281
49.67,162
49.67,106
49.67,202
49.67,243
49.67,227
49.67,129
49.67,241
49.67,211
49.67,147
49.67,92
49.67,185
49.67,234
49.67,197
49.67,160
49.67,184
49.67,2
49.67,57
49.67,210
49.68,115
49.68,142
49.68,275
49.68,230
49.68,82
49.68,66
49.68,79
49.68,118
49.68,18
49.68,121
49.68,51
49.68,45
49.68,186
49.68,87
49.68,269
49.68,24
49.68,100
49.68,54
49.68,198
49.68,75
49.68,282
49.68,237
49.68,239
49.68,3
49.68,15
49.68,90
49.68,36
49.68,83
49.68,177
49.68,205
49.68,12
49.69,31
49.69,7
49.69,135
49.69,195
49.69,49
49.69,272
49.69,222
49.69,168
49.69,60
49.69,268
49.69,188
49.69,228
49.69,165
49.69,201
49.69,259
49.69,119
49.69,279
49.69,1
49.69,122
49.69,187
49.69,137
49.69,161
49.69,270
49.69,76
49.70,70
49.70,178
49.70,14
49.70,152
49.70,219
49.70,13
49.70,84
49.70,35
49.70,200
49.70,73
49.70,216
49.70,40
49.70,245
49.70,260
49.70,11
49.70,9
49.70,133
49.70,254
49.70,236
49.70,61
49.70,217
49.70,190
49.70,212
49.70,271
49.70,235
49.70,96
49.70,114
49.70,215
49.70,141
49.70,32
49.70,140
49.70,80
49.70,262
49.71,196
49.71,181
49.71,27
49.71,10
49.71,38
49.71,98
49.71,191
49.71,95
49.71,226
49.71,77
49.71,233
49.71,246
49.71,93
49.71,266
49.71,242
49.71,67
49.71,55
49.71,194
49.71,176
49.71,72
49.71,274
49.71,154
49.71,153
49.71,164
49.71,150
49.71,131
49.72,192
49.72,163
49.72,125
49.72,170
49.72,143
49.72,256
49.72,240
49.72,257
49.72,144
49.72,46
49.72,224
49.72,265
49.72,4
49.72,136
49.72,273
49.72,189
49.72,116
49.73,117
49.73,44
49.73,47
49.73,218
49.73,283
49.73,130
49.73,50
49.73,182
49.73,220
49.73,8
49.73,25
49.73,112
49.73,6
49.73,159
49.73,131
49.73,68
49.73,54
49.73,127
49.73,63
49.73,178
49.73,193
49.73,183
49.73,64
49.73,93
49.73,15
49.74,85
49.74,154
49.74,88
49.74,182
49.74,122
49.74,185
49.74,72
49.74,162
49.74,152
49.74,187
49.74,62
49.74,4
49.74,97
49.74,158
49.74,31
49.74,153
49.74,58
49.74,7
49.74,165
49.74,132
49.74,39
49.74,73
49.74,172
49.74,76
49.74,166
49.75,141
49.75,115
49.75,160
49.75,145
49.75,121
49.75,146
49.75,48
49.75,180
49.75,147
49.75,194
49.75,108
49.75,140
49.75,118
49.75,113
49.75,3
49.75,149
49.75,11
49.75,9
49.75,65
49.75,117
49.76,126
49.76,78
49.76,169
49.76,14
49.76,2
49.76,5
49.76,150
49.76,179
49.76,128
49.76,25
49.76,139
49.76,56
49.76,125
49.76,151
49.76,192
49.76,110
49.76,191
49.76,40
49.77,86
49.77,119
49.77,133
49.77,17
49.77,112
49.77,30
49.77,79
49.77,35
49.77,10
49.77,38
49.77,136
49.77,175
49.77,170
49.77,8
49.77,101
49.77,190
49.77,37
49.77,184
49.77,161
49.77,26
49.77,105
49.78,188
49.78,50
49.78,81
49.78,43
49.78,29
49.78,155
49.78,103
49.78,55
49.78,138
49.78,23
49.78,156
49.78,69
49.78,104
49.78,36
49.78,148
49.78,77
49.78,124
49.78,59
49.78,102
49.78,109
49.78,18
49.78,19
49.79,80
49.79,176
49.79,91
49.79,171
49.79,28
49.79,174
49.79,53
49.79,95
49.79,168
49.79,42
49.79,129
49.79,21
49.79,22
49.79,61
49.79,94
49.79,177
49.79,74
49.79,89
49.79,134
49.79,44
49.79,181
49.79,111
49.79,27
49.79,47
49.79,66
49.79,12
49.80,157
49.80,1
49.80,87
49.80,189
49.80,116
49.80,142
49.80,13
49.80,83
49.80,90
49.80,67
49.80,45
49.80,92
49.80,163
49.80,71
49.80,135
49.80,82
49.81,60
49.81,98
49.81,33
49.81,75
49.81,120
49.81,49
49.81,167
49.81,107
49.81,24
49.81,99
49.81,32
49.81,173
49.81,52
49.81,57
49.82,114
49.82,143
49.82,84
49.82,16
49.82,20
49.82,106
49.82,123
49.82,137
49.82,144
49.82,100
49.82,130
49.82,46
49.82,34
49.82,186
49.82,96
49.82,41
49.82,51
49.83,195
49.83,70
49.83,164
49.83,66
49.83,47
49.83,56
49.83,40
49.83,76
49.83,60
49.84,8
49.84,48
49.84,63
49.84,23
49.84,58
49.84,9
49.84,39
49.84,69
49.84,4
49.84,30
49.84,33
49.84,71
49.84,45
49.84,81
49.84,6
49.84,25
49.84,85
49.85,65
49.85,36
49.85,80
49.85,73
49.85,10
49.85,18
49.85,61
49.85,52
49.85,49
49.85,83
49.85,84
49.85,17
49.86,79
49.86,72
49.86,50
49.86,75
49.86,14
49.86,2
49.86,3
49.86,16
49.87,42
49.87,28
49.87,37
49.87,43
49.87,55
49.87,77
49.87,78
49.87,11
49.87,38
49.87,24
49.88,26
49.88,68
49.88,12
49.88,21
49.88,44
49.88,41
49.88,1
49.88,7
49.89,82
49.89,57
49.89,54
49.89,70
49.89,35
49.89,13
49.89,29
49.90,27
49.90,86
49.90,46
49.90,22
49.90,34
49.90,15
49.91,74
49.91,5
49.91,59
49.91,88
49.91,64
49.91,87
49.91,31
49.92,51
49.92,53
49.92,20
49.92,62
49.93,67
49.93,32
49.93,19
49.93,7
49.93,6
49.93,10
49.93,5
49.93,11
49.93,14
49.94,18
49.94,19
49.94,26
49.94,21
49.94,4
49.94,23
49.95,2
49.95,22
49.96,17
49.96,15
49.97,9
49.98,1
49.98,16
49.98,12
49.99,8
50.00,13
50.00,24
50.00,3
50.00,25
50.02,20
50.13,1
