Values ,histogram2D(_statGetWaveform( "Transient - fallTime_Monte Carlo" nil ?resDbFile axlGetHistoryResults(axlGetCurrentHistory(_vivaGetSessionName())) ?testName "RO:RO_tb:1" ?filtPointsList "" ) 10 "standard" "stddev" t)
262.0E-12,4
263.2E-12,2
263.4E-12,1
263.5E-12,3
263.7E-12,23
263.8E-12,18
263.9E-12,31
264.0E-12,6
264.0E-12,28
264.0E-12,20
264.2E-12,14
264.3E-12,13
264.4E-12,16
264.4E-12,15
264.4E-12,27
264.5E-12,7
264.5E-12,29
264.6E-12,26
264.7E-12,17
264.7E-12,3
264.8E-12,30
264.8E-12,25
264.8E-12,1
264.8E-12,5
264.9E-12,10
264.9E-12,22
264.9E-12,2
264.9E-12,12
264.9E-12,19
265.0E-12,11
265.0E-12,21
265.0E-12,9
265.1E-12,8
265.1E-12,4
265.1E-12,24
265.2E-12,14
265.2E-12,37
265.3E-12,70
265.3E-12,2
265.3E-12,72
265.3E-12,18
265.3E-12,11
265.3E-12,82
265.3E-12,80
265.3E-12,67
265.4E-12,4
265.4E-12,60
265.4E-12,45
265.4E-12,91
265.4E-12,27
265.4E-12,19
265.4E-12,96
265.4E-12,34
265.5E-12,97
265.5E-12,102
265.5E-12,43
265.5E-12,101
265.5E-12,38
265.5E-12,83
265.5E-12,71
265.6E-12,94
265.6E-12,59
265.7E-12,78
265.7E-12,73
265.7E-12,22
265.7E-12,30
265.7E-12,8
265.7E-12,85
265.7E-12,106
265.7E-12,56
265.7E-12,52
265.7E-12,3
265.8E-12,17
265.8E-12,40
265.8E-12,61
265.8E-12,41
265.8E-12,54
265.8E-12,58
265.8E-12,100
265.9E-12,31
265.9E-12,95
265.9E-12,69
266.0E-12,46
266.0E-12,90
266.0E-12,64
266.0E-12,25
266.0E-12,47
266.0E-12,26
266.1E-12,98
266.1E-12,55
266.1E-12,99
266.1E-12,87
266.1E-12,75
266.1E-12,63
266.1E-12,16
266.2E-12,1
266.2E-12,29
266.2E-12,35
266.2E-12,48
266.2E-12,105
266.2E-12,50
266.2E-12,24
266.2E-12,86
266.2E-12,84
266.2E-12,9
266.3E-12,12
266.3E-12,44
266.4E-12,79
266.4E-12,104
266.4E-12,76
266.4E-12,57
266.4E-12,88
266.5E-12,51
266.5E-12,33
266.5E-12,49
266.5E-12,62
266.5E-12,6
266.5E-12,53
266.5E-12,89
266.5E-12,5
266.5E-12,10
266.5E-12,39
266.5E-12,66
266.5E-12,36
266.5E-12,32
266.5E-12,23
266.5E-12,92
266.5E-12,65
266.5E-12,28
266.6E-12,93
266.6E-12,77
266.6E-12,103
266.6E-12,20
266.6E-12,15
266.6E-12,7
266.6E-12,68
266.6E-12,74
266.6E-12,81
266.7E-12,13
266.7E-12,21
266.7E-12,42
266.7E-12,133
266.7E-12,86
266.7E-12,122
266.8E-12,162
266.8E-12,129
266.8E-12,49
266.8E-12,126
266.8E-12,107
266.8E-12,176
266.8E-12,74
266.8E-12,168
266.8E-12,154
266.8E-12,82
266.9E-12,147
266.9E-12,117
266.9E-12,23
266.9E-12,40
266.9E-12,131
266.9E-12,181
266.9E-12,124
266.9E-12,12
267.0E-12,24
267.0E-12,180
267.0E-12,142
267.0E-12,51
267.0E-12,88
267.0E-12,134
267.0E-12,90
267.0E-12,161
267.0E-12,28
267.0E-12,60
267.0E-12,190
267.0E-12,72
267.0E-12,46
267.0E-12,175
267.1E-12,106
267.1E-12,119
267.1E-12,158
267.1E-12,111
267.1E-12,54
267.1E-12,177
267.1E-12,19
267.1E-12,145
267.1E-12,109
267.1E-12,75
267.2E-12,144
267.2E-12,78
267.2E-12,179
267.2E-12,174
267.2E-12,67
267.2E-12,102
267.2E-12,44
267.2E-12,95
267.2E-12,118
267.2E-12,136
267.2E-12,36
267.2E-12,185
267.2E-12,32
267.2E-12,8
267.2E-12,31
267.2E-12,186
267.2E-12,159
267.3E-12,27
267.3E-12,47
267.3E-12,171
267.3E-12,87
267.3E-12,138
267.3E-12,98
267.3E-12,41
267.3E-12,10
267.3E-12,189
267.3E-12,152
267.3E-12,96
267.3E-12,110
267.3E-12,6
267.4E-12,53
267.4E-12,39
267.4E-12,101
267.4E-12,112
267.4E-12,167
267.4E-12,141
267.4E-12,149
267.4E-12,100
267.4E-12,146
267.4E-12,29
267.4E-12,93
267.4E-12,58
267.5E-12,178
267.5E-12,92
267.5E-12,137
267.5E-12,172
267.5E-12,9
267.5E-12,21
267.5E-12,135
267.5E-12,156
267.5E-12,193
267.5E-12,17
267.6E-12,13
267.6E-12,30
267.6E-12,55
267.6E-12,26
267.6E-12,148
267.6E-12,115
267.6E-12,20
267.6E-12,50
267.6E-12,14
267.6E-12,1
267.6E-12,65
267.6E-12,73
267.6E-12,143
267.6E-12,188
267.6E-12,85
267.6E-12,116
267.6E-12,192
267.7E-12,48
267.7E-12,153
267.7E-12,170
267.7E-12,66
267.7E-12,157
267.7E-12,108
267.7E-12,123
267.7E-12,139
267.7E-12,16
267.7E-12,140
267.7E-12,173
267.7E-12,105
267.7E-12,37
267.7E-12,15
267.7E-12,125
267.7E-12,80
267.7E-12,184
267.8E-12,104
267.8E-12,45
267.8E-12,113
267.8E-12,79
267.8E-12,7
267.8E-12,183
267.8E-12,5
267.8E-12,56
267.8E-12,43
267.8E-12,127
267.8E-12,120
267.8E-12,191
267.8E-12,18
267.8E-12,166
267.8E-12,61
267.9E-12,25
267.9E-12,22
267.9E-12,164
267.9E-12,81
267.9E-12,69
267.9E-12,84
267.9E-12,169
267.9E-12,163
267.9E-12,160
267.9E-12,121
268.0E-12,99
268.0E-12,76
268.0E-12,62
268.0E-12,2
268.0E-12,38
268.0E-12,150
268.0E-12,70
268.0E-12,59
268.0E-12,155
268.0E-12,63
268.0E-12,128
268.0E-12,52
268.0E-12,33
268.0E-12,114
268.0E-12,187
268.0E-12,71
268.0E-12,151
268.0E-12,64
268.1E-12,182
268.1E-12,132
268.1E-12,34
268.1E-12,42
268.1E-12,103
268.1E-12,91
268.1E-12,94
268.1E-12,4
268.1E-12,89
268.1E-12,97
268.1E-12,35
268.2E-12,165
268.2E-12,3
268.2E-12,11
268.2E-12,57
268.2E-12,68
268.2E-12,83
268.2E-12,77
268.3E-12,130
268.3E-12,5
268.3E-12,176
268.3E-12,172
268.3E-12,151
268.3E-12,158
268.3E-12,224
268.3E-12,42
268.3E-12,138
268.3E-12,143
268.3E-12,191
268.3E-12,25
268.3E-12,119
268.3E-12,52
268.3E-12,61
268.3E-12,135
268.3E-12,150
268.3E-12,91
268.4E-12,161
268.4E-12,252
268.4E-12,57
268.4E-12,6
268.4E-12,109
268.4E-12,141
268.4E-12,35
268.4E-12,198
268.4E-12,84
268.4E-12,112
268.4E-12,146
268.4E-12,147
268.4E-12,131
268.4E-12,10
268.4E-12,213
268.4E-12,189
268.4E-12,7
268.5E-12,136
268.5E-12,195
268.5E-12,226
268.5E-12,166
268.5E-12,66
268.5E-12,246
268.5E-12,229
268.5E-12,145
268.5E-12,240
268.5E-12,207
268.5E-12,106
268.5E-12,234
268.5E-12,148
268.5E-12,225
268.5E-12,171
268.6E-12,82
268.6E-12,200
268.6E-12,96
268.6E-12,126
268.6E-12,21
268.6E-12,70
268.6E-12,157
268.6E-12,55
268.6E-12,69
268.6E-12,111
268.6E-12,184
268.6E-12,113
268.6E-12,93
268.6E-12,24
268.6E-12,75
268.7E-12,133
268.7E-12,235
268.7E-12,99
268.7E-12,68
268.7E-12,231
268.7E-12,15
268.7E-12,80
268.7E-12,19
268.7E-12,114
268.7E-12,32
268.7E-12,130
268.7E-12,11
268.7E-12,16
268.7E-12,220
268.7E-12,212
268.7E-12,102
268.7E-12,142
268.7E-12,41
268.7E-12,203
268.8E-12,124
268.8E-12,65
268.8E-12,77
268.8E-12,17
268.8E-12,53
268.8E-12,144
268.8E-12,85
268.8E-12,23
268.8E-12,247
268.8E-12,39
268.8E-12,137
268.9E-12,190
268.9E-12,237
268.9E-12,167
268.9E-12,37
268.9E-12,8
268.9E-12,2
268.9E-12,13
268.9E-12,121
268.9E-12,181
268.9E-12,243
268.9E-12,48
268.9E-12,81
268.9E-12,152
268.9E-12,182
268.9E-12,103
268.9E-12,139
268.9E-12,194
268.9E-12,122
268.9E-12,230
269.0E-12,56
269.0E-12,63
269.0E-12,18
269.0E-12,92
269.0E-12,44
269.0E-12,71
269.0E-12,215
269.0E-12,248
269.0E-12,192
269.0E-12,128
269.0E-12,216
269.0E-12,125
269.0E-12,129
269.0E-12,59
269.1E-12,31
269.1E-12,233
269.1E-12,98
269.1E-12,47
269.1E-12,180
269.1E-12,193
269.1E-12,4
269.1E-12,205
269.1E-12,185
269.1E-12,27
269.1E-12,210
269.1E-12,159
269.1E-12,168
269.1E-12,110
269.1E-12,30
269.1E-12,74
269.1E-12,100
269.1E-12,223
269.1E-12,101
269.1E-12,3
269.1E-12,170
269.2E-12,123
269.2E-12,34
269.2E-12,87
269.2E-12,26
269.2E-12,60
269.2E-12,154
269.2E-12,64
269.2E-12,174
269.2E-12,72
269.2E-12,187
269.2E-12,177
269.2E-12,179
269.2E-12,153
269.2E-12,175
269.2E-12,97
269.2E-12,43
269.2E-12,245
269.2E-12,242
269.2E-12,118
269.2E-12,227
269.2E-12,206
269.2E-12,83
269.2E-12,120
269.2E-12,186
269.2E-12,73
269.2E-12,28
269.3E-12,219
269.3E-12,105
269.3E-12,29
269.3E-12,250
269.3E-12,89
269.3E-12,251
269.3E-12,132
269.3E-12,116
269.3E-12,253
269.3E-12,160
269.3E-12,40
269.3E-12,1
269.3E-12,221
269.3E-12,239
269.3E-12,95
269.3E-12,20
269.4E-12,9
269.4E-12,254
269.4E-12,236
269.4E-12,238
269.4E-12,209
269.4E-12,46
269.4E-12,104
269.4E-12,117
269.4E-12,228
269.4E-12,202
269.4E-12,199
269.4E-12,36
269.4E-12,14
269.4E-12,201
269.4E-12,156
269.5E-12,22
269.5E-12,217
269.5E-12,163
269.5E-12,214
269.5E-12,173
269.5E-12,79
269.5E-12,54
269.5E-12,49
269.5E-12,67
269.5E-12,162
269.5E-12,222
269.6E-12,165
269.6E-12,197
269.6E-12,86
269.6E-12,188
269.6E-12,204
269.6E-12,88
269.6E-12,183
269.6E-12,249
269.6E-12,33
269.6E-12,149
269.6E-12,241
269.6E-12,127
269.6E-12,12
269.7E-12,38
269.7E-12,244
269.7E-12,108
269.7E-12,94
269.7E-12,107
269.7E-12,50
269.7E-12,62
269.7E-12,169
269.7E-12,208
269.7E-12,78
269.7E-12,134
269.7E-12,140
269.7E-12,218
269.7E-12,45
269.7E-12,90
269.7E-12,155
269.8E-12,164
269.8E-12,76
269.8E-12,196
269.8E-12,232
269.8E-12,178
269.8E-12,115
269.8E-12,58
269.8E-12,211
269.8E-12,51
269.8E-12,85
269.8E-12,185
269.8E-12,152
269.8E-12,26
269.8E-12,51
269.8E-12,50
269.9E-12,68
269.9E-12,89
269.9E-12,99
269.9E-12,20
269.9E-12,196
269.9E-12,53
269.9E-12,124
269.9E-12,64
269.9E-12,142
269.9E-12,74
269.9E-12,96
269.9E-12,153
269.9E-12,27
269.9E-12,25
269.9E-12,190
269.9E-12,67
269.9E-12,84
270.0E-12,119
270.0E-12,77
270.0E-12,90
270.0E-12,58
270.0E-12,115
270.0E-12,201
270.0E-12,7
270.0E-12,69
270.0E-12,158
270.0E-12,15
270.0E-12,159
270.0E-12,132
270.0E-12,197
270.0E-12,56
270.1E-12,12
270.1E-12,148
270.1E-12,204
270.1E-12,105
270.1E-12,75
270.1E-12,1
270.1E-12,33
270.1E-12,137
270.1E-12,38
270.1E-12,11
270.1E-12,9
270.1E-12,183
270.1E-12,155
270.1E-12,5
270.1E-12,118
270.1E-12,44
270.1E-12,189
270.1E-12,109
270.1E-12,108
270.2E-12,81
270.2E-12,154
270.2E-12,156
270.2E-12,184
270.2E-12,206
270.2E-12,83
270.2E-12,203
270.2E-12,91
270.2E-12,80
270.2E-12,186
270.2E-12,59
270.2E-12,10
270.2E-12,113
270.3E-12,143
270.3E-12,14
270.3E-12,112
270.3E-12,176
270.3E-12,63
270.3E-12,166
270.3E-12,78
270.3E-12,173
270.3E-12,127
270.3E-12,4
270.3E-12,24
270.3E-12,202
270.3E-12,160
270.4E-12,79
270.4E-12,23
270.4E-12,104
270.4E-12,94
270.4E-12,29
270.4E-12,106
270.4E-12,146
270.4E-12,18
270.4E-12,87
270.4E-12,139
270.4E-12,22
270.4E-12,151
270.4E-12,163
270.4E-12,133
270.5E-12,13
270.5E-12,72
270.5E-12,49
270.5E-12,86
270.5E-12,121
270.5E-12,95
270.5E-12,130
270.6E-12,145
270.6E-12,17
270.6E-12,31
270.6E-12,35
270.6E-12,103
270.6E-12,161
270.6E-12,6
270.6E-12,128
270.6E-12,134
270.6E-12,92
270.6E-12,21
270.6E-12,2
270.6E-12,207
270.6E-12,171
270.6E-12,54
270.6E-12,208
270.6E-12,149
270.7E-12,42
270.7E-12,30
270.7E-12,182
270.7E-12,8
270.7E-12,147
270.7E-12,174
270.7E-12,116
270.7E-12,47
270.7E-12,136
270.7E-12,187
270.7E-12,70
270.7E-12,114
270.7E-12,157
270.7E-12,48
270.7E-12,192
270.8E-12,43
270.8E-12,61
270.8E-12,100
270.8E-12,120
270.8E-12,162
270.8E-12,199
270.8E-12,167
270.8E-12,200
270.8E-12,97
270.8E-12,177
270.8E-12,98
270.8E-12,107
270.8E-12,37
270.9E-12,93
270.9E-12,60
270.9E-12,19
270.9E-12,110
270.9E-12,117
270.9E-12,34
270.9E-12,73
270.9E-12,138
270.9E-12,82
270.9E-12,194
270.9E-12,141
270.9E-12,169
270.9E-12,126
270.9E-12,36
270.9E-12,164
270.9E-12,28
270.9E-12,32
270.9E-12,3
271.0E-12,41
271.0E-12,55
271.0E-12,135
271.0E-12,46
271.0E-12,198
271.0E-12,122
271.0E-12,76
271.0E-12,150
271.1E-12,180
271.1E-12,88
271.1E-12,168
271.1E-12,172
271.1E-12,45
271.1E-12,191
271.1E-12,144
271.1E-12,65
271.1E-12,57
271.1E-12,39
271.1E-12,195
271.2E-12,66
271.2E-12,193
271.2E-12,131
271.2E-12,123
271.2E-12,16
271.2E-12,165
271.2E-12,71
271.2E-12,179
271.3E-12,125
271.3E-12,170
271.3E-12,129
271.3E-12,40
271.3E-12,62
271.3E-12,175
271.3E-12,111
271.3E-12,101
271.3E-12,205
271.3E-12,52
271.3E-12,140
271.3E-12,188
271.4E-12,178
271.4E-12,102
271.4E-12,181
271.4E-12,6
271.4E-12,2
271.4E-12,94
271.4E-12,56
271.4E-12,96
271.4E-12,4
271.4E-12,116
271.4E-12,75
271.5E-12,126
271.5E-12,111
271.5E-12,106
271.5E-12,134
271.5E-12,121
271.5E-12,60
271.5E-12,89
271.5E-12,24
271.5E-12,25
271.5E-12,76
271.5E-12,45
271.5E-12,61
271.6E-12,57
271.6E-12,73
271.6E-12,29
271.6E-12,48
271.6E-12,52
271.6E-12,19
271.6E-12,74
271.6E-12,72
271.6E-12,35
271.6E-12,47
271.6E-12,90
271.7E-12,20
271.7E-12,68
271.7E-12,92
271.7E-12,112
271.7E-12,70
271.7E-12,108
271.7E-12,86
271.7E-12,131
271.7E-12,85
271.7E-12,16
271.8E-12,118
271.8E-12,84
271.8E-12,69
271.8E-12,66
271.8E-12,42
271.8E-12,38
271.8E-12,26
271.9E-12,95
271.9E-12,27
271.9E-12,8
271.9E-12,71
271.9E-12,3
271.9E-12,55
271.9E-12,83
271.9E-12,49
272.0E-12,119
272.0E-12,39
272.0E-12,79
272.0E-12,93
272.0E-12,23
272.0E-12,80
272.0E-12,109
272.0E-12,28
272.0E-12,62
272.0E-12,113
272.0E-12,34
272.1E-12,50
272.1E-12,46
272.1E-12,88
272.1E-12,117
272.1E-12,9
272.1E-12,67
272.1E-12,124
272.1E-12,97
272.2E-12,54
272.2E-12,133
272.2E-12,21
272.2E-12,101
272.2E-12,104
272.2E-12,132
272.2E-12,114
272.2E-12,32
272.3E-12,58
272.3E-12,91
272.3E-12,127
272.3E-12,120
272.3E-12,128
272.3E-12,1
272.3E-12,31
272.3E-12,13
272.3E-12,51
272.4E-12,125
272.4E-12,129
272.4E-12,41
272.4E-12,63
272.4E-12,98
272.4E-12,107
272.4E-12,14
272.5E-12,65
272.5E-12,7
272.5E-12,43
272.5E-12,37
272.5E-12,130
272.5E-12,87
272.5E-12,105
272.5E-12,11
272.5E-12,99
272.6E-12,110
272.6E-12,22
272.6E-12,18
272.6E-12,40
272.6E-12,81
272.6E-12,33
272.6E-12,53
272.7E-12,102
272.7E-12,103
272.7E-12,12
272.7E-12,17
272.7E-12,122
272.7E-12,36
272.8E-12,15
272.8E-12,5
272.8E-12,10
272.8E-12,82
272.8E-12,115
272.8E-12,78
272.8E-12,77
272.8E-12,123
272.9E-12,59
272.9E-12,100
272.9E-12,64
272.9E-12,44
272.9E-12,30
273.0E-12,34
273.0E-12,37
273.0E-12,45
273.0E-12,55
273.0E-12,22
273.0E-12,9
273.1E-12,31
273.1E-12,11
273.1E-12,29
273.1E-12,7
273.1E-12,28
273.2E-12,53
273.2E-12,3
273.3E-12,4
273.3E-12,49
273.3E-12,13
273.3E-12,6
273.4E-12,43
273.4E-12,1
273.4E-12,23
273.4E-12,25
273.4E-12,56
273.5E-12,58
273.5E-12,26
273.5E-12,30
273.6E-12,21
273.6E-12,51
273.6E-12,35
273.6E-12,44
273.6E-12,57
273.7E-12,39
273.7E-12,46
273.7E-12,24
273.8E-12,10
273.8E-12,12
273.8E-12,52
273.9E-12,17
273.9E-12,14
274.0E-12,32
274.0E-12,15
274.0E-12,54
274.1E-12,5
274.1E-12,16
274.1E-12,19
274.1E-12,38
274.2E-12,47
274.2E-12,48
274.2E-12,18
274.2E-12,20
274.3E-12,50
274.3E-12,2
274.4E-12,42
274.4E-12,8
274.4E-12,40
274.4E-12,36
274.4E-12,33
274.4E-12,27
274.5E-12,41
274.7E-12,4
274.9E-12,6
275.0E-12,1
275.1E-12,3
275.3E-12,5
275.3E-12,2
275.5E-12,7
275.6E-12,8
276.1E-12,4
276.1E-12,3
276.9E-12,1
277.6E-12,2
