************************************************************************
* auCdl Netlist:
* 
* Library Name:  RO
* Top Cell Name: esd
* View Name:     schematic
* Netlisted on:  Mar 11 11:37:14 2021
************************************************************************

.INCLUDE  /opt/pdk/umc13mmrf/CDL_include_file.cir
*.EQUATION
*.SCALE METER
*.MEGA
.PARAM



************************************************************************
* Library Name: RO
* Cell Name:    esd
* View Name:    schematic
************************************************************************

.SUBCKT esd GND PAD VDD
*.PININFO GND:B PAD:B VDD:B
MNM0 PAD GND GND GND N_HG_33_L130E W=3u L=440.0n M=40.0
MPM0 PAD VDD VDD VDD P_HG_33_L130E W=3u L=440.0n M=40.0
.ENDS

