divideby2 1000
4A.1J
1 1 2 Mar 17 11:27:29 2021                     
Rule File Pathname: /home/gtrindade/Cadence/Projects/umc130_2021/UNSEEN_UWB_1V2/divideby2/DRC/_drc-FEOL.rul_
Diffusion density within DIFFUSION_DUMMY_BLOCK, 500umx500um, 250um increments must > 20%
p 1 4
CN divideby2 c 1 0 0 1 0 0 0
1680 -8175
9785 -8175
9785 -60
1680 -60
4A.19P
1 1 2 Mar 17 11:27:29 2021                     
Rule File Pathname: /home/gtrindade/Cadence/Projects/umc130_2021/UNSEEN_UWB_1V2/divideby2/DRC/_drc-FEOL.rul_
The PO1 coverage must be larger than 15% of POLY1_DUMMY_BLOCK.
p 1 4
CN divideby2 c 1 0 0 1 0 0 0
1680 -8175
9785 -8175
9785 -60
1680 -60
DENSITY_PRINT_FILES
0 0 2 Mar 17 11:27:29 2021
DIFF_DENSITY
POLY_DENSITY
