//OK 
//NUMBER_OF_HEADER_LINES: 6
//VERSION: 1
//TOKEN_DELIMITER: "
//TOKEN_SEPARATOR: " "
//FORMAT: "time" "calibre version" "command line"
"Tue Mar  9 12:14:33 2021 " "v2018.4_17.10" "-xrc -pdb -rcc -turbo 1 /home/gtrindade/Cadence/Projects/umc130_ELT/RO/RO/PEX/_pex.rul_"
"Tue Mar  9 12:14:38 2021 " "v2018.4_17.10" "-xrc -fmt -all /home/gtrindade/Cadence/Projects/umc130_ELT/RO/RO/PEX/_pex.rul_"
