//OK 
//NUMBER_OF_HEADER_LINES: 6
//VERSION: 1
//TOKEN_DELIMITER: "
//TOKEN_SEPARATOR: " "
//FORMAT: "time" "calibre version" "command line"
"Wed Mar 17 09:53:39 2021 " "v2018.4_17.10" "-xrc -pdb -rcc -turbo 1 /home/gtrindade/Cadence/Projects/umc130_2021/UNSEEN_UWB_1V2/divideby2/PEX/_pex.rul_"
"Wed Mar 17 09:53:43 2021 " "v2018.4_17.10" "-xrc -fmt -all /home/gtrindade/Cadence/Projects/umc130_2021/UNSEEN_UWB_1V2/divideby2/PEX/_pex.rul_"
