************************************************************************
* auCdl Netlist:
* 
* Library Name:  RO
* Top Cell Name: top
* View Name:     schematic
* Netlisted on:  Mar 19 13:48:40 2021
************************************************************************

.INCLUDE  /opt/pdk/umc13mmrf/CDL_include_file.cir
*.EQUATION
*.SCALE METER
*.MEGA
.PARAM



************************************************************************
* Library Name: RO
* Cell Name:    inverter
* View Name:    schematic
************************************************************************

.SUBCKT inverter VDD VIN VOUT VSS
*.PININFO VIN:I VDD:B VOUT:B VSS:B
MI2 VOUT VIN VDD VDD P_12_HSL130E l=300.00n w=27.2u
MI3 VOUT VIN VSS VSS N_12_HSL130E l=300.00n w=6u
.ENDS

************************************************************************
* Library Name: RO
* Cell Name:    RO
* View Name:    schematic
************************************************************************

.SUBCKT RO VDD VSS Vctrl Vout
*.PININFO Vctrl:I Vout:O VDD:B VSS:B
XI6 VDD net6 net011 VSS / inverter
XI7 VDD net011 Vout VSS / inverter
XI5 VDD Vout net6 VSS / inverter
MI30 net011 Vctrl net011 VSS N_12_HSL130E l=950.00n w=27.2u
MI31 Vout Vctrl Vout VSS N_12_HSL130E l=950.00n w=27.2u
MI29 net6 Vctrl net6 VSS N_12_HSL130E l=950.00n w=27.2u
.ENDS

************************************************************************
* Library Name: RO
* Cell Name:    buffer
* View Name:    schematic
************************************************************************

.SUBCKT buffer VDD VSS Vin Vout
*.PININFO Vin:I Vout:O VDD:B VSS:B
XI40<1> VDD net2 net3 VSS / inverter
XI40<0> VDD net2 net3 VSS / inverter
XI55<1> VDD net3 Vout VSS / inverter
XI55<0> VDD net3 Vout VSS / inverter
XI57<1> VDD net3 Vout VSS / inverter
XI57<0> VDD net3 Vout VSS / inverter
XI37 VDD Vin net1 VSS / inverter
XI56<1> VDD net3 Vout VSS / inverter
XI56<0> VDD net3 Vout VSS / inverter
XI54<1> VDD net2 net3 VSS / inverter
XI54<0> VDD net2 net3 VSS / inverter
XI39<1> VDD net1 net2 VSS / inverter
XI39<0> VDD net1 net2 VSS / inverter
XI50<1> VDD net3 Vout VSS / inverter
XI50<0> VDD net3 Vout VSS / inverter
.ENDS

************************************************************************
* Library Name: RO
* Cell Name:    esd
* View Name:    schematic
************************************************************************

.SUBCKT esd GND PAD VDD
*.PININFO GND:B PAD:B VDD:B
MNM0 PAD GND GND GND N_HG_33_L130E W=3u L=440.0n M=40.0
MPM0 PAD VDD VDD VDD P_HG_33_L130E W=3u L=440.0n M=40.0
.ENDS

************************************************************************
* Library Name: RO
* Cell Name:    top
* View Name:    schematic
************************************************************************

.SUBCKT top VDD VSS Vctrl Vout
*.PININFO VDD:I VSS:I Vctrl:I Vout:O
XI10 VDD VSS net06 net14 / RO
XI1 VDD VSS net14 Vout / buffer
MC4 VSS VDD VSS VSS N_12_HSL130E W=28.04u L=24.84u M=16.0
XC3 Vout VSS / PAD_RF w=74.2u l=80.8u index=1 tm=8 C=263.7958f
XC2 VSS VSS / PAD_RF w=74.2u l=80.8u index=1 tm=8 C=263.7958f
XC1 VDD VSS / PAD_RF w=74.2u l=80.8u index=1 tm=8 C=263.7958f
XC0 Vctrl VSS / PAD_RF w=74.2u l=80.8u index=1 tm=8 C=263.7958f
RR0 Vctrl net06 96.0 $SUB=VSS $[RSNPO_MML130E] $W=500n $L=6u
XI18 VSS VSS VDD / esd
XI16 VSS VDD VDD / esd
XI17 VSS Vctrl VDD / esd
.ENDS

