************************************************************************
* auCdl Netlist:
* 
* Library Name:  UNSEEN_UWB_1V2
* Top Cell Name: ringOsc_HS
* View Name:     schematic_sized
* Netlisted on:  Mar 19 10:34:46 2021
************************************************************************

.INCLUDE  /opt/pdk/umc13mmrf/CDL_include_file.cir
*.EQUATION
*.SCALE METER
*.MEGA
.PARAM



************************************************************************
* Library Name: UNSEEN_UWB_1V2
* Cell Name:    tg_brito
* View Name:    schematic
************************************************************************

.SUBCKT tg_brito A EN EP Y GND supplyVDD
*.PININFO EN:I EP:I A:B GND:B Y:B supplyVDD:B
MM0 A EN Y GND N_12_HSL130E W=500n L=120.0n M=1.0
MM1 A EP Y supplyVDD P_12_HSL130E W=1.5u L=120.0n M=1.0
.ENDS

************************************************************************
* Library Name: UNSEEN_UWB_1V2
* Cell Name:    INV0
* View Name:    schematic
************************************************************************

.SUBCKT INV0 in out vdd vss
*.PININFO in:B out:B vdd:B vss:B
MPM1 out in vdd vdd P_12_HSL130E W=720.0n L=240.0n M=1.0
MNM0 out in vss vss N_12_HSL130E W=160.0n L=240.0n M=1.0
.ENDS

************************************************************************
* Library Name: UNSEEN_UWB_1V2
* Cell Name:    INV_OSC
* View Name:    schematic
************************************************************************

.SUBCKT INV_OSC in out vdd vss
*.PININFO in:B out:B vdd:B vss:B
MPM1 out in vdd vdd P_12_HSL130E W=1.62u L=265.00n M=2.0
MNM0 out in vss vss N_12_HSL130E W=360.0n L=265.00n M=2.0
.ENDS

************************************************************************
* Library Name: UNSEEN_UWB_1V2
* Cell Name:    INV2
* View Name:    schematic
************************************************************************

.SUBCKT INV2 in out vdd vss
*.PININFO in:B out:B vdd:B vss:B
MPM1 out in vdd vdd P_12_HSL130E W=2.16e-6 L=240.0n M=1.0
MNM0 out in vss vss N_12_HSL130E W=480e-9 L=240.0n M=1.0
.ENDS

************************************************************************
* Library Name: UNSEEN_UWB_1V2
* Cell Name:    ringOsc_HS
* View Name:    schematic_sized
************************************************************************

.SUBCKT ringOsc_HS f_sel out start_n vctrl vdd vss
*.PININFO f_sel:I out:I vctrl:I vdd:I vss:I start_n:B
XI62 net0161 f_sel_ f_sel net0165 vss vdd / tg_brito
XI60 net0134 f_sel f_sel_ net0165 vss vdd / tg_brito
XI61 net0134 f_sel_ f_sel net0183 vss vdd / tg_brito
XI59 start_n start vdd vss / INV0
MPM37 net0134 vctrl net0134 vdd P_12_HSL130E W=4u L=4u M=1.0
MPM36 net0130 vctrl net0130 vdd P_12_HSL130E W=4u L=4u M=1.0
MPM35 net0128 vctrl net0128 vdd P_12_HSL130E W=2u L=4u M=2.0
MPM34 net0161 vctrl net0161 vdd P_12_HSL130E W=4u L=4u M=1.0
MPM33 net0159 vctrl net0159 vdd P_12_HSL130E W=4u L=4u M=1.0
MPM32 net0157 vctrl net0157 vdd P_12_HSL130E W=4u L=4u M=1.0
MPM31 net0155 vctrl net0155 vdd P_12_HSL130E W=4u L=4u M=1.0
MPM30 net0153 vctrl net0153 vdd P_12_HSL130E W=4u L=4u M=1.0
MPM29 net0151 vctrl net0151 vdd P_12_HSL130E W=4u L=4u M=1.0
MPM28 net0149 vctrl net0149 vdd P_12_HSL130E W=4u L=4u M=1.0
MPM27 net0147 vctrl net0147 vdd P_12_HSL130E W=4u L=4u M=1.0
MPM26 net0145 vctrl net0145 vdd P_12_HSL130E W=4u L=4u M=1.0
MPM25 net0143 vctrl net0143 vdd P_12_HSL130E W=4u L=4u M=1.0
MPM24 net0141 vctrl net0141 vdd P_12_HSL130E W=4u L=4u M=1.0
MPM23 net0139 vctrl net0139 vdd P_12_HSL130E W=4u L=4u M=1.0
MPM22 net0137 vctrl net0137 vdd P_12_HSL130E W=4u L=4u M=1.0
MPM21 net0135 vctrl net0135 vdd P_12_HSL130E W=4u L=4u M=1.0
MPM20 out start vdd vdd P_12_HSL130E W=1.6u L=120.0n M=12.0
MNM21 net0165 start_n vss vss N_12_HSL130E W=1.44u L=120.0n M=10.0
XI68 net0128 net0130 vdd vss / INV_OSC
XI69 net0130 net0134 vdd vss / INV_OSC
XI67 net0165 net0128 vdd vss / INV_OSC
XI82 net0157 net0159 vdd vss / INV_OSC
XI83 net0159 net0161 vdd vss / INV_OSC
XI81 net0155 net0157 vdd vss / INV_OSC
XI80 net0153 net0155 vdd vss / INV_OSC
XI78 net0149 net0151 vdd vss / INV_OSC
XI77 net0147 net0149 vdd vss / INV_OSC
XI79 net0151 net0153 vdd vss / INV_OSC
XI76 net0145 net0147 vdd vss / INV_OSC
XI70 net0183 net0135 vdd vss / INV_OSC
XI71 net0135 net0137 vdd vss / INV_OSC
XI72 net0137 net0139 vdd vss / INV_OSC
XI73 net0139 net0141 vdd vss / INV_OSC
XI74 net0141 net0143 vdd vss / INV_OSC
XI75 net0143 net0145 vdd vss / INV_OSC
XI63 f_sel f_sel_ vdd vss / INV2
XI58 net0165 out vdd vss / INV2
.ENDS

