************************************************************************
* auCdl Netlist:
* 
* Library Name:  UNSEEN_UWB_1V2
* Top Cell Name: INV2
* View Name:     schematic
* Netlisted on:  Mar 16 14:17:45 2021
************************************************************************

.INCLUDE  /opt/pdk/umc13mmrf/CDL_include_file.cir
*.EQUATION
*.SCALE METER
*.MEGA
.PARAM



************************************************************************
* Library Name: UNSEEN_UWB_1V2
* Cell Name:    INV2
* View Name:    schematic
************************************************************************

.SUBCKT INV2 in out vdd vss
*.PININFO in:B out:B vdd:B vss:B
MPM1 out in vdd vdd P_12_HSL130E W=2.16e-6 L=240.0n M=1.0
MNM0 out in vss vss N_12_HSL130E W=480e-9 L=240.0n M=1.0
.ENDS

